#korablik{
	background: transparent url('../img/level/korablik.png') 0 0 no-repeat;
	background-size: 100% 100%;
	position: absolute;
	left: 41.8%;
	top: 54.4%;
	width: 29.65%;
	height: 44%;
}

#text{
	background: transparent url('../img/level/text.png') 0 0 no-repeat;
	background-size: 100% 100%;
	position: absolute;
	left: 13.2%;
	top: 7.2%;
	width: 53.8%;
	height: 57.8%;
}

<div id='korablik' ng-class=''></div>
<div id='text' ng-class=''></div>
